{
  "openapi": "3.0.0",
  "x-stoplight": {
    "id": "bd5v8bfvqxkk0"
  },
  "info": {
    "title": "administrative",
    "version": "1.0"
  },
  "servers": [
    {
      "url": "http://localhost:3000"
    }
  ],
  "paths": {},
  "components": {
    "schemas": {
      "AdministrativeRarRulesGetResponse": {
        "type": "object",
        "x-examples": {
          "Example 1": {
            "total": 40,
            "from": 1,
            "per_page": 15,
            "current_page": 2,
            "last_page": 3,
            "rules": [
              {
                "id": 2311,
                "uuid": "7748-2r29-vj22-vnje",
                "published": true,
                "created_at": "27-06-2023 02:03:00",
                "updated_at": "27-06-2023 03:03:00",
                "details": [
                  {
                    "id": 7748,
                    "uuid": "7748-2r29-vj22-vnje",
                    "title": "About Scientific Library",
                    "content": "Ғылыми кітапхана дирекциясы (бұдан әрі - Кітапхана)...",
                    "image": "base64 string format",
                    "created_at": "27-06-2023 02:03:00",
                    "updated_at": "27-06-2023 03:03:00",
                    "language": {
                      "id": 7748,
                      "uuid": "7748-2r29-vj22-vnje",
                      "short": "en",
                      "long": "en-EN"
                    }
                  }
                ],
                "categories": [
                  {
                    "id": 7748,
                    "uuid": "7748-2r29-vj22-vnje",
                    "title": "Guidlines",
                    "description": "Guildlines",
                    "language": {
                      "id": 7748,
                      "uuid": "7748-2r29-vj22-vnje",
                      "short": "en",
                      "long": "en-EN"
                    }
                  }
                ],
                "attachments": [
                  {
                    "id": 7748,
                    "uuid": "7748-2r29-vj22-vnje",
                    "title": "About Scientific Library",
                    "path": "pms.sdu.edu.kz/rules-and-regulations/attachments/about-scientific-library/ground-floor.jpg",
                    "size": "1.6 MB",
                    "language": {
                      "id": 7748,
                      "uuid": "7748-2r29-vj22-vnje",
                      "short": "en",
                      "long": "en-EN"
                    }
                  }
                ]
              }
            ]
          }
        },
        "properties": {
          "total": {
            "type": "integer"
          },
          "from": {
            "type": "integer"
          },
          "per_page": {
            "type": "integer"
          },
          "current_page": {
            "type": "integer"
          },
          "last_page": {
            "type": "integer"
          },
          "rules": {
            "type": "array",
            "items": {
              "type": "object",
              "properties": {
                "id": {
                  "type": "integer"
                },
                "uuid": {
                  "type": "string"
                },
                "published": {
                  "type": "boolean"
                },
                "created_at": {
                  "type": "string"
                },
                "updated_at": {
                  "type": "string"
                },
                "details": {
                  "type": "array",
                  "items": {
                    "type": "object",
                    "properties": {
                      "id": {
                        "type": "integer"
                      },
                      "uuid": {
                        "type": "string"
                      },
                      "title": {
                        "type": "string"
                      },
                      "content": {
                        "type": "string"
                      },
                      "image": {
                        "type": "string"
                      },
                      "created_at": {
                        "type": "string"
                      },
                      "updated_at": {
                        "type": "string"
                      },
                      "language": {
                        "type": "object",
                        "required": [
                          "id",
                          "uuid",
                          "short",
                          "long"
                        ],
                        "properties": {
                          "id": {
                            "type": "integer"
                          },
                          "uuid": {
                            "type": "string"
                          },
                          "short": {
                            "type": "string"
                          },
                          "long": {
                            "type": "string"
                          }
                        }
                      }
                    },
                    "required": [
                      "id",
                      "uuid",
                      "title",
                      "content",
                      "image",
                      "created_at",
                      "updated_at",
                      "language"
                    ]
                  }
                },
                "categories": {
                  "type": "array",
                  "items": {
                    "type": "object",
                    "properties": {
                      "id": {
                        "type": "integer"
                      },
                      "uuid": {
                        "type": "string"
                      },
                      "title": {
                        "type": "string"
                      },
                      "description": {
                        "type": "string"
                      },
                      "language": {
                        "type": "object",
                        "required": [
                          "id",
                          "uuid",
                          "short",
                          "long"
                        ],
                        "properties": {
                          "id": {
                            "type": "integer"
                          },
                          "uuid": {
                            "type": "string"
                          },
                          "short": {
                            "type": "string"
                          },
                          "long": {
                            "type": "string"
                          }
                        }
                      }
                    },
                    "required": [
                      "id",
                      "uuid",
                      "title",
                      "description",
                      "language"
                    ]
                  }
                },
                "attachments": {
                  "type": "array",
                  "items": {
                    "type": "object",
                    "properties": {
                      "id": {
                        "type": "integer"
                      },
                      "uuid": {
                        "type": "string"
                      },
                      "title": {
                        "type": "string"
                      },
                      "path": {
                        "type": "string"
                      },
                      "size": {
                        "type": "string"
                      },
                      "language": {
                        "type": "object",
                        "required": [
                          "id",
                          "uuid",
                          "short",
                          "long"
                        ],
                        "properties": {
                          "id": {
                            "type": "integer"
                          },
                          "uuid": {
                            "type": "string"
                          },
                          "short": {
                            "type": "string"
                          },
                          "long": {
                            "type": "string"
                          }
                        }
                      }
                    },
                    "required": [
                      "id",
                      "uuid",
                      "title",
                      "path",
                      "size",
                      "language"
                    ]
                  }
                }
              },
              "required": [
                "id",
                "uuid",
                "published",
                "created_at",
                "updated_at",
                "details",
                "categories",
                "attachments"
              ]
            }
          }
        },
        "required": [
          "total",
          "from",
          "per_page",
          "current_page",
          "last_page",
          "rules"
        ]
      }
    }
  }
}