{
  "openapi": "3.1.0",
  "x-stoplight": {
    "id": "wf3awm83avwfn"
  },
  "info": {
    "title": "service-esign",
    "version": "1.0"
  },
  "servers": [
    {
      "url": "http://localhost:3000"
    }
  ],
  "paths": {},
  "components": {
    "schemas": {
      "ServiceAdvisorAssignmentResourceGetRequest": {
        "type": "object",
        "x-stoplight": {
          "id": "26458553d6bfe"
        },
        "properties": {
          "modules": {
            "type": "array",
            "items": {
              "type": "string"
            }
          }
        },
        "x-examples": {
          "Example 1": {
            "modules": [
              "programs",
              "instructors",
              "years",
              "citizenship"
            ]
          }
        },
        "title": "ServiceAdvisorAssignmentResourceGetRequest",
        "description": ""
      },
      "ServiceAdvisorAssignmentResourceGetResponse": {
        "type": "object",
        "x-examples": {
          "Example 1": {
            "programs": [
              {
                "prog_code": "98000",
                "language": "EN",
                "cipher": "6B01705",
                "title": "Finance",
                "period_count": 8
              }
            ],
            "advisors": [
              {
                "id": 200103,
                "full_name": "Zhandos Saparbayev"
              }
            ],
            "years": [
              {
                "year": 2023
              }
            ],
            "citizenship": [
              {
                "id": 1366,
                "name": "KAZAKHSTAN",
                "title": "Kazakhstan",
                "country_code": "KZ"
              }
            ],
            "classes": [
              1,
              2,
              3,
              4
            ]
          }
        },
        "required": [
          "programs",
          "advisors",
          "years",
          "citizenship",
          "classes"
        ],
        "properties": {
          "programs": {
            "type": "array",
            "items": {
              "type": "object",
              "required": [
                "prog_code",
                "language",
                "cipher",
                "title",
                "period_count"
              ],
              "properties": {
                "prog_code": {
                  "type": "string"
                },
                "language": {
                  "type": "string"
                },
                "cipher": {
                  "type": "string"
                },
                "title": {
                  "type": "string"
                },
                "period_count": {
                  "type": "integer"
                }
              }
            }
          },
          "advisors": {
            "type": "array",
            "items": {
              "type": "object",
              "required": [
                "id",
                "full_name"
              ],
              "properties": {
                "id": {
                  "type": "integer"
                },
                "full_name": {
                  "type": "string"
                }
              }
            }
          },
          "years": {
            "type": "array",
            "items": {
              "type": "object",
              "required": [
                "year"
              ],
              "properties": {
                "year": {
                  "type": "integer"
                }
              }
            }
          },
          "citizenship": {
            "type": "array",
            "items": {
              "type": "object",
              "required": [
                "id",
                "name",
                "title",
                "country_code"
              ],
              "properties": {
                "id": {
                  "type": "integer"
                },
                "name": {
                  "type": "string"
                },
                "title": {
                  "type": "string"
                },
                "country_code": {
                  "type": "string"
                }
              }
            }
          },
          "classes": {
            "type": "array",
            "items": {
              "type": "integer"
            }
          }
        }
      },
      "ServiceAdvisorAssignmentStudentsGetRequest": {
        "type": "object",
        "x-examples": {
          "Example 1": {
            "per_page": 15,
            "offset": 40,
            "student_id": 200103201,
            "program_code": "10103",
            "entrance_year": 2023,
            "class": 4,
            "employee_id": 11078,
            "without_advisor": true,
            "citizenship": "KZ"
          }
        },
        "required": [
          "per_page",
          "offset",
          "year",
          "term"
        ],
        "properties": {
          "per_page": {
            "type": "integer"
          },
          "offset": {
            "type": "integer"
          },
          "student_id": {
            "type": "integer"
          },
          "program_code": {
            "type": "string"
          },
          "entrance_year": {
            "type": "integer"
          },
          "class": {
            "type": "integer"
          },
          "employee_id": {
            "type": "integer"
          },
          "without_advisor": {
            "type": "boolean"
          },
          "citizenship": {
            "type": "string"
          },
          "year": {
            "type": "integer",
            "x-stoplight": {
              "id": "ddaet7amhbpx0"
            }
          },
          "term": {
            "type": "integer",
            "x-stoplight": {
              "id": "c9ip2g9aejwpk"
            }
          }
        }
      },
      "ServiceAdvisorAssignmentStudentsGetResponse": {
        "type": "object",
        "x-examples": {
          "Example 1": {
            "total": 40,
            "from": 1,
            "per_page": 15,
            "current_page": 2,
            "last_page": 3,
            "students": [
              {
                "id": "200103201",
                "full_name": "Zhandos Saparbayev",
                "class": 4,
                "specialty": {
                  "program_code": "10103",
                  "language": "English",
                  "speciality_code": "6B06101",
                  "title": "Information Systems",
                  "department_id": 1051,
                  "terms": 8
                },
                "advisor": {
                  "id": 200103,
                  "full_name": "Zhandos Saparbayev"
                }
              }
            ]
          }
        },
        "required": [
          "total",
          "from",
          "per_page",
          "current_page",
          "last_page",
          "students"
        ],
        "properties": {
          "total": {
            "type": "integer"
          },
          "from": {
            "type": "integer"
          },
          "per_page": {
            "type": "integer"
          },
          "current_page": {
            "type": "integer"
          },
          "last_page": {
            "type": "integer"
          },
          "students": {
            "type": "array",
            "items": {
              "type": "object",
              "required": [
                "id",
                "full_name",
                "class",
                "specialty"
              ],
              "properties": {
                "id": {
                  "type": "string"
                },
                "full_name": {
                  "type": "string"
                },
                "class": {
                  "type": "integer"
                },
                "specialty": {
                  "type": "object",
                  "required": [
                    "program_code",
                    "language",
                    "speciality_code",
                    "title",
                    "department_id",
                    "terms"
                  ],
                  "properties": {
                    "program_code": {
                      "type": "string"
                    },
                    "language": {
                      "type": "string"
                    },
                    "speciality_code": {
                      "type": "string"
                    },
                    "title": {
                      "type": "string"
                    },
                    "department_id": {
                      "type": "integer"
                    },
                    "terms": {
                      "type": "integer"
                    }
                  }
                },
                "advisor": {
                  "type": "object",
                  "required": [
                    "id",
                    "full_name"
                  ],
                  "properties": {
                    "id": {
                      "type": "integer"
                    },
                    "full_name": {
                      "type": "string"
                    }
                  }
                }
              }
            }
          }
        }
      },
      "ServiceAdvisorAssignmentAssginStudentsToAdvisorRequest": {
        "type": "object",
        "x-stoplight": {
          "id": "7de33cf5fed31"
        },
        "x-examples": {
          "Example 1": {
            "students_list": [
              "200103201"
            ],
            "advisor_id": "10002"
          }
        },
        "required": [
          "students_list",
          "advisor_id"
        ],
        "properties": {
          "students_list": {
            "type": "array",
            "items": {
              "type": "string"
            }
          },
          "advisor_id": {
            "type": "string"
          }
        }
      }
    }
  }
}