{
  "openapi": "3.1.0",
  "x-stoplight": {
    "id": "l8x765xye9qpj"
  },
  "info": {
    "title": "service-message-broadcast",
    "version": "1.0"
  },
  "servers": [
    {
      "url": "http://localhost:3000"
    }
  ],
  "paths": {
    "/1.0.0/service/message-broadcast": {
      "get": {
        "summary": "Your GET endpoint",
        "tags": [],
        "responses": {
          "200": {
            "description": "OK",
            "content": {
              "application/json": {
                "schema": {
                  "$ref": "#/components/schemas/ServiceMessageBroadcastGetResponse"
                }
              }
            }
          }
        },
        "operationId": "get-1.0.0-service-message-broadcast",
        "x-stoplight": {
          "id": "d0osjc71qjimx"
        },
        "requestBody": {
          "content": {
            "application/json": {
              "schema": {
                "$ref": "#/components/schemas/ServiceMessageBroadcastGetRequest"
              }
            }
          }
        }
      },
      "post": {
        "summary": "",
        "operationId": "post-1.0.0-service-message-broadcast",
        "responses": {
          "201": {
            "description": "Created",
            "content": {
              "application/json": {
                "schema": {
                  "$ref": "#/components/schemas/ServiceMessageBroadcastMessageResponse"
                }
              }
            }
          }
        },
        "x-stoplight": {
          "id": "b5nuqqi2xfzk0"
        },
        "requestBody": {
          "content": {
            "application/json": {
              "schema": {
                "$ref": "#/components/schemas/ServiceMessageBroadcastPostRequest"
              }
            },
            "application/xml": {
              "schema": {
                "type": "object",
                "properties": {}
              }
            }
          },
          "description": ""
        }
      }
    },
    "/1.0.0/service/message-broadcast/{message}": {
      "parameters": [
        {
          "schema": {
            "type": "string"
          },
          "name": "message",
          "in": "path",
          "required": true
        }
      ],
      "get": {
        "summary": "Your GET endpoint",
        "tags": [],
        "responses": {
          "200": {
            "description": "OK",
            "content": {
              "application/json": {
                "schema": {
                  "$ref": "#/components/schemas/ServiceMessageBroadcastMessageResponse"
                }
              }
            }
          }
        },
        "operationId": "get-1.0.0-service-message-broadcast-message",
        "x-stoplight": {
          "id": "f49cf41egqrd6"
        }
      }
    },
    "/1.0.0/service/message-broadcast/resources": {
      "get": {
        "summary": "Your GET endpoint",
        "tags": [],
        "responses": {
          "200": {
            "description": "OK",
            "content": {
              "application/json": {
                "schema": {
                  "$ref": "#/components/schemas/ServiceMessageBroadcastResourceResponse"
                }
              }
            }
          }
        },
        "operationId": "get-1.0.0-service-message-broadcast-resources",
        "x-stoplight": {
          "id": "4ydr35hgoczrn"
        }
      }
    },
    "/1.0.0/service/message-broadcast/employee": {
      "get": {
        "summary": "Your GET endpoint",
        "tags": [],
        "responses": {
          "200": {
            "description": "OK",
            "content": {
              "application/json": {
                "schema": {
                  "$ref": "#/components/schemas/ServiceMessageBroadcastEmployeeGetResponse"
                }
              }
            }
          }
        },
        "operationId": "get-1.0.0-service-message-broadcast-employee",
        "x-stoplight": {
          "id": "32fwropujpm98"
        },
        "requestBody": {
          "content": {
            "application/json": {
              "schema": {
                "$ref": "#/components/schemas/ServiceMessageBroadcastEmployeeGetRequest",
                "x-examples": {
                  "Example 1": {
                    "status": [
                      1
                    ],
                    "stat": [
                      1
                    ]
                  }
                }
              }
            }
          }
        }
      }
    }
  },
  "components": {
    "schemas": {
      "ServiceMessageBroadcastResourceResponse": {
        "type": "object",
        "x-examples": {
          "Example 1": {
            "courses": [
              {
                "course_id": 47915,
                "course_code": "MAT 154",
                "title": "Mathematics for Computer Science 2",
                "section": "01",
                "type": "N",
                "students": [
                  {
                    "id": "200103049",
                    "full_name": "Yernur Shamshadin"
                  }
                ]
              }
            ],
            "department_programs": [
              {
                "department_code": "DEP_PED",
                "department_title": "Faculty of education and humanities",
                "programs": [
                  {
                    "program_code": "10107",
                    "program_title": "Computer Science",
                    "education_language": "EN",
                    "education_level": "B",
                    "classes_count": "4"
                  }
                ]
              }
            ],
            "departments": [
              {
                "id": 1055,
                "parent_id": 109,
                "code": "DEP_INF_SYS",
                "title": "Department of Information Systems",
                "year": 2022,
                "positions": [
                  1211
                ],
                "children": [
                  "string"
                ]
              }
            ],
            "types": [
              "sent"
            ],
            "from": [
              {
                "id": 1,
                "title": "Technical Support"
              }
            ],
            "status": [
              {
                "status_id": 1,
                "title": "Administrative",
                "user_type": 2
              }
            ],
            "stat": [
              {
                "stat_id": 1,
                "title": "full time"
              }
            ]
          }
        },
        "required": [
          "courses",
          "department_programs",
          "departments",
          "types",
          "from",
          "status",
          "stat"
        ],
        "properties": {
          "courses": {
            "type": "array",
            "items": {
              "type": "object",
              "required": [
                "course_id",
                "course_code",
                "title",
                "section",
                "type",
                "students"
              ],
              "properties": {
                "course_id": {
                  "type": "integer"
                },
                "course_code": {
                  "type": "string"
                },
                "title": {
                  "type": "string"
                },
                "section": {
                  "type": "string"
                },
                "type": {
                  "type": "string"
                },
                "students": {
                  "type": "array",
                  "items": {
                    "type": "object",
                    "required": [
                      "id",
                      "full_name"
                    ],
                    "properties": {
                      "id": {
                        "type": "string"
                      },
                      "full_name": {
                        "type": "string"
                      }
                    }
                  }
                }
              }
            }
          },
          "department_programs": {
            "type": "array",
            "items": {
              "type": "object",
              "required": [
                "department_code",
                "department_title",
                "programs"
              ],
              "properties": {
                "department_code": {
                  "type": "string"
                },
                "department_title": {
                  "type": "string"
                },
                "programs": {
                  "type": "array",
                  "items": {
                    "type": "object",
                    "required": [
                      "program_code",
                      "program_title",
                      "education_language",
                      "education_level",
                      "classes_count"
                    ],
                    "properties": {
                      "program_code": {
                        "type": "string"
                      },
                      "program_title": {
                        "type": "string"
                      },
                      "education_language": {
                        "type": "string"
                      },
                      "education_level": {
                        "type": "string"
                      },
                      "classes_count": {
                        "type": "string"
                      }
                    }
                  }
                }
              }
            }
          },
          "departments": {
            "type": "array",
            "items": {
              "type": "object",
              "required": [
                "id",
                "parent_id",
                "code",
                "title",
                "year",
                "positions",
                "children"
              ],
              "properties": {
                "id": {
                  "type": "integer"
                },
                "parent_id": {
                  "type": "integer"
                },
                "code": {
                  "type": "string"
                },
                "title": {
                  "type": "string"
                },
                "year": {
                  "type": "integer"
                },
                "positions": {
                  "type": "array",
                  "items": {
                    "type": "integer"
                  }
                },
                "children": {
                  "type": "array",
                  "items": {
                    "type": "string"
                  }
                }
              }
            }
          },
          "types": {
            "type": "array",
            "items": {
              "type": "string"
            }
          },
          "from": {
            "type": "array",
            "items": {
              "type": "object",
              "required": [
                "id",
                "title"
              ],
              "properties": {
                "id": {
                  "type": "integer"
                },
                "title": {
                  "type": "string"
                }
              }
            }
          },
          "status": {
            "type": "array",
            "items": {
              "type": "object",
              "required": [
                "status_id",
                "title",
                "user_type"
              ],
              "properties": {
                "status_id": {
                  "type": "integer"
                },
                "title": {
                  "type": "string"
                },
                "user_type": {
                  "type": "integer"
                }
              }
            }
          },
          "stat": {
            "type": "array",
            "items": {
              "type": "object",
              "required": [
                "stat_id",
                "title"
              ],
              "properties": {
                "stat_id": {
                  "type": "integer"
                },
                "title": {
                  "type": "string"
                }
              }
            }
          }
        }
      },
      "ServiceMessageBroadcastGetRequest": {
        "title": "ServiceMessageBroadcastGetRequest",
        "x-stoplight": {
          "id": "1du10geowud3e"
        },
        "type": "object",
        "properties": {
          "device": {
            "type": "string",
            "x-stoplight": {
              "id": "y1ormdvjfpxgg"
            }
          },
          "type": {
            "type": "string",
            "x-stoplight": {
              "id": "trk2caigdhztn"
            }
          },
          "per_page": {
            "type": "number",
            "x-stoplight": {
              "id": "aewzm6s3a1bxz"
            }
          },
          "offset": {
            "type": "number",
            "x-stoplight": {
              "id": "wdizqioq8gq97"
            }
          }
        },
        "required": [
          "device",
          "type",
          "per_page",
          "offset"
        ]
      },
      "ServiceMessageBroadcastGetResponse": {
        "type": "object",
        "x-examples": {
          "Example 1": {
            "total": 20,
            "from": 1,
            "per_page": 10,
            "current_page": 1,
            "last_page": 2,
            "messages": [
              {
                "id": 1,
                "author": "Larissa Bazarbayeva",
                "receives_count": 100,
                "subject": "Prefinal",
                "content": "All students check the prefinal points in the portal",
                "message_from": "1"
              }
            ]
          }
        },
        "properties": {
          "total": {
            "type": "integer"
          },
          "from": {
            "type": "integer"
          },
          "per_page": {
            "type": "integer"
          },
          "current_page": {
            "type": "integer"
          },
          "last_page": {
            "type": "integer"
          },
          "messages": {
            "type": "array",
            "items": {
              "type": "object",
              "properties": {
                "id": {
                  "type": "integer"
                },
                "author": {
                  "type": "string"
                },
                "receives_count": {
                  "type": "integer"
                },
                "subject": {
                  "type": "string"
                },
                "content": {
                  "type": "string"
                },
                "message_from": {
                  "type": "string"
                }
              },
              "required": [
                "id",
                "author",
                "receives_count",
                "subject",
                "content",
                "message_from"
              ]
            }
          }
        },
        "required": [
          "total",
          "from",
          "per_page",
          "current_page",
          "last_page",
          "messages"
        ]
      },
      "ServiceMessageBroadcastPostRequest": {
        "type": "object",
        "x-examples": {
          "Example 1": {
            "subject": "Prefinal",
            "content": "All students check the prefinal points in the portal",
            "from": 1,
            "type": "by_programs",
            "programs": [
              {
                "code": "10107",
                "classes": [
                  "1"
                ]
              }
            ],
            "students": [
              "200103048"
            ],
            "employees": [
              "aisaule.bazarkulova"
            ]
          }
        },
        "required": [
          "subject",
          "content",
          "from",
          "type"
        ],
        "properties": {
          "subject": {
            "type": "string"
          },
          "content": {
            "type": "string"
          },
          "from": {
            "type": "integer"
          },
          "type": {
            "type": "string"
          },
          "programs": {
            "type": "array",
            "items": {
              "type": "object",
              "properties": {
                "code": {
                  "type": "string"
                },
                "classes": {
                  "type": "array",
                  "items": {
                    "type": "string"
                  }
                }
              }
            }
          },
          "students": {
            "type": "array",
            "items": {
              "type": "string"
            }
          },
          "employees": {
            "type": "array",
            "items": {
              "type": "string"
            }
          }
        }
      },
      "ServiceMessageBroadcastPostResponse": {
        "type": "object",
        "x-examples": {
          "Example 1": {
            "id": 1,
            "author": "Larissa Bazarbayeva",
            "subject": "Prefinal",
            "content": "All students check the prefinal points in the portal",
            "from": "1",
            "receives": [
              {
                "id": 1,
                "full_name": "Larissa Bazarbayeva",
                "student_id": "210107010",
                "employee_id": 10082,
                "sent_date": "2023-05-18 09:00:41.000",
                "read_date": "2023-05-19 19:00:41.000",
                "status": true
              }
            ]
          }
        },
        "properties": {
          "id": {
            "type": "integer"
          },
          "author": {
            "type": "string"
          },
          "subject": {
            "type": "string"
          },
          "content": {
            "type": "string"
          },
          "from": {
            "type": "string"
          },
          "receives": {
            "type": "array",
            "items": {
              "type": "object",
              "properties": {
                "id": {
                  "type": "integer"
                },
                "full_name": {
                  "type": "string"
                },
                "student_id": {
                  "type": "string"
                },
                "employee_id": {
                  "type": "integer"
                },
                "sent_date": {
                  "type": "string"
                },
                "read_date": {
                  "type": "string"
                },
                "status": {
                  "type": "boolean"
                }
              },
              "required": [
                "id",
                "full_name",
                "student_id",
                "employee_id",
                "sent_date",
                "read_date",
                "status"
              ]
            }
          }
        },
        "required": [
          "id",
          "author",
          "subject",
          "content",
          "from",
          "receives"
        ],
        "title": ""
      },
      "ServiceMessageBroadcastMessageResponse": {
        "type": "object",
        "x-examples": {
          "Example 1": {
            "id": 1,
            "author": "Larissa Bazarbayeva",
            "subject": "Prefinal",
            "content": "All students check the prefinal points in the portal",
            "from": "1",
            "receives": [
              {
                "id": 1,
                "full_name": "Larissa Bazarbayeva",
                "student_id": "210107010",
                "employee_id": 10082,
                "sent_date": "2023-05-18 09:00:41",
                "read_date": "2023-05-19 19:00:41",
                "status": true
              }
            ]
          }
        },
        "required": [
          "id",
          "author",
          "subject",
          "content",
          "from",
          "receives"
        ],
        "properties": {
          "id": {
            "type": "integer"
          },
          "author": {
            "type": "string"
          },
          "subject": {
            "type": "string"
          },
          "content": {
            "type": "string"
          },
          "from": {
            "type": "string"
          },
          "receives": {
            "type": "array",
            "items": {
              "type": "object",
              "required": [
                "id",
                "full_name",
                "student_id",
                "employee_id",
                "sent_date",
                "read_date",
                "status"
              ],
              "properties": {
                "id": {
                  "type": "integer"
                },
                "full_name": {
                  "type": "string"
                },
                "student_id": {
                  "type": "string"
                },
                "employee_id": {
                  "type": "integer"
                },
                "sent_date": {
                  "type": "string"
                },
                "read_date": {
                  "type": "string"
                },
                "status": {
                  "type": "boolean"
                }
              }
            }
          }
        }
      },
      "ServiceMessageBroadcastEmployeeGetRequest": {
        "type": "object",
        "x-examples": {
          "Example 1": {
            "departments": [
              "10051"
            ]
          }
        },
        "required": [
          "departments"
        ],
        "properties": {
          "departments": {
            "type": "array",
            "items": {
              "type": "string"
            }
          }
        }
      },
      "ServiceMessageBroadcastEmployeeGetResponse": {
        "type": "array",
        "x-examples": {
          "Example 1": [
            {
              "username": "elvin.naghiyev",
              "full_name": "Elvin Naghiyev",
              "specialty": "Director",
              "department_code": "10051"
            }
          ]
        },
        "items": {
          "type": "object",
          "required": [
            "username",
            "full_name",
            "speciality",
            "department_code",
            "department_title"
          ],
          "properties": {
            "username": {
              "type": "string"
            },
            "full_name": {
              "type": "string"
            },
            "speciality": {
              "type": "string",
              "x-stoplight": {
                "id": "imbrc6uue42r3"
              }
            },
            "department_code": {
              "type": "string"
            },
            "department_title": {
              "type": "string",
              "x-stoplight": {
                "id": "hnknfx9q5vfet"
              }
            }
          }
        }
      }
    }
  }
}