{
  "openapi": "3.0.0",
  "x-stoplight": {
    "id": "5hfq56eadfv4c"
  },
  "info": {
    "title": "service",
    "version": "1.0"
  },
  "servers": [
    {
      "url": "http://localhost:3000"
    }
  ],
  "paths": {
    "/1.0.0/service/manage/languages/resources": {
      "get": {
        "summary": "Your GET endpoint",
        "tags": [],
        "responses": {
          "200": {
            "description": "Language resources are successfully retrieved.",
            "content": {
              "application/json": {
                "schema": {
                  "$ref": "#/components/schemas/ServiceManageLanguagesResourcesResponse"
                }
              }
            }
          }
        },
        "operationId": "get-1.0.0-service-manage-languages-resources",
        "x-stoplight": {
          "id": "cu9nu10ndxyjk"
        },
        "requestBody": {
          "content": {
            "application/json": {
              "schema": {
                "$ref": "#/components/schemas/ServiceManageLanguagesResourcesRequest"
              }
            }
          }
        }
      }
    },
    "/1.0.0/service/manage/locks": {
      "get": {
        "summary": "Your GET endpoint",
        "tags": [],
        "responses": {
          "200": {
            "description": "Locks are successfully retrieved.",
            "content": {
              "application/json": {
                "schema": {
                  "$ref": "#/components/schemas/ServiceManageLocksGetResponse"
                }
              }
            }
          }
        },
        "operationId": "get-1.0.0-service-manage-locks",
        "x-stoplight": {
          "id": "mjpsqdzj87ff9"
        },
        "requestBody": {
          "content": {
            "application/json": {
              "schema": {
                "$ref": "#/components/schemas/ServiceManageLocksGetRequest"
              }
            }
          }
        }
      },
      "post": {
        "summary": "Your POST endpoint",
        "operationId": "post-1.0.0-service-manage-locks",
        "responses": {
          "201": {
            "description": "Locks are successfully created."
          }
        },
        "x-stoplight": {
          "id": "7lmr7sivhy5zd"
        }
      }
    },
    "/1.0.0/service/manage/locks/toggle": {
      "put": {
        "summary": "Your PUT endpoint",
        "operationId": "put-1.0.0-service-manage-locks-toggle",
        "responses": {
          "200": {
            "description": "Locks active status are successfully changed."
          }
        },
        "x-stoplight": {
          "id": "79o39qvjb7q8z"
        }
      }
    },
    "/1.0.0/service/manage/locks/reschedule": {
      "put": {
        "summary": "Your PUT endpoint",
        "operationId": "put-1.0.0-service-manage-locks-reschedule",
        "responses": {
          "200": {
            "description": "Locks are successfully rescheduled."
          }
        },
        "x-stoplight": {
          "id": "2j0u6s5z8s0w5"
        }
      }
    }
  },
  "components": {
    "schemas": {
      "ServiceManageLanguagesResourcesRequest": {
        "title": "ServiceManageLanguagesResourcesRequest",
        "x-stoplight": {
          "id": "4ouoz723t9sy4"
        },
        "type": "object",
        "properties": {
          "modules ": {
            "type": "array",
            "x-stoplight": {
              "id": "0hlvybmutxwqe"
            },
            "items": {
              "x-stoplight": {
                "id": "dyoftr2j84yqa"
              },
              "type": "string"
            }
          }
        },
        "required": [
          "modules "
        ]
      },
      "ServiceManageLanguagesResourcesResponse": {
        "type": "object",
        "x-examples": {
          "Example 1": {
            "language_levels": [
              {
                "id": 4,
                "title": "Upper-Intermediate",
                "code": "B2"
              }
            ],
            "languages": [
              {
                "id": "KZ",
                "language": "Kazakh"
              }
            ],
            "departments": [
              {
                "program_code": "98000",
                "language": "EN",
                "cipher": "6B01705",
                "title": "Finance",
                "period_count": 8
              }
            ],
            "years": [
              {
                "year": 2023
              }
            ]
          }
        },
        "properties": {
          "language_levels": {
            "type": "array",
            "items": {
              "type": "object",
              "properties": {
                "id": {
                  "type": "integer"
                },
                "title": {
                  "type": "string"
                },
                "code": {
                  "type": "string"
                }
              },
              "required": [
                "id",
                "title",
                "code"
              ]
            }
          },
          "languages": {
            "type": "array",
            "items": {
              "type": "object",
              "properties": {
                "id": {
                  "type": "string"
                },
                "language": {
                  "type": "string"
                }
              },
              "required": [
                "id",
                "language"
              ]
            }
          },
          "departments": {
            "type": "array",
            "items": {
              "type": "object",
              "properties": {
                "program_code": {
                  "type": "string"
                },
                "language": {
                  "type": "string"
                },
                "cipher": {
                  "type": "string"
                },
                "title": {
                  "type": "string"
                },
                "period_count": {
                  "type": "integer"
                }
              },
              "required": [
                "program_code",
                "language",
                "cipher",
                "title",
                "period_count"
              ]
            }
          },
          "years": {
            "type": "array",
            "items": {
              "type": "object",
              "properties": {
                "year": {
                  "type": "integer"
                }
              },
              "required": [
                "year"
              ]
            }
          }
        },
        "required": [
          "language_levels",
          "languages",
          "departments",
          "years"
        ]
      },
      "ServiceManageLocksGetRequest": {
        "type": "object",
        "x-examples": {
          "Example 1": {
            "per_page": 10,
            "offset": 1,
            "locked": false,
            "department_id": 1,
            "speciality_id": 1,
            "education_level": "B",
            "student_id": "200103049",
            "name": "Yernur",
            "surname": "Shamshadin",
            "entrance_year": 2023
          }
        },
        "properties": {
          "per_page": {
            "type": "integer"
          },
          "offset": {
            "type": "integer"
          },
          "locked": {
            "type": "boolean"
          },
          "department_id": {
            "type": "integer"
          },
          "speciality_id": {
            "type": "integer"
          },
          "education_level": {
            "type": "string"
          },
          "student_id": {
            "type": "string"
          },
          "name": {
            "type": "string"
          },
          "surname": {
            "type": "string"
          },
          "entrance_year": {
            "type": "integer"
          }
        },
        "required": [
          "per_page",
          "offset",
          "department_id"
        ],
        "title": ""
      },
      "ServiceManageLocksGetResponse": {
        "type": "object",
        "x-examples": {
          "Example 1": {
            "total": 20,
            "from": 1,
            "per_page": 10,
            "current_page": 1,
            "last_page": 2,
            "students": [
              {
                "id": 200103049,
                "name": "Yernur",
                "surname": "Shamshadin",
                "education_level": "Bachelor",
                "entrance_year": 2020,
                "department": "Department of Computer Sciences",
                "speciality": "Information Systems",
                "locking_status": true,
                "locks": [
                  {
                    "id": 1,
                    "is_active": true,
                    "requester_department_code": "DEP_COMP_SCI",
                    "requester_department_title": "Department of Computer Sciences",
                    "start_date": "2022-01-01 00:00:00",
                    "end_date": "2022-01-01 00:00:00"
                  }
                ]
              }
            ]
          }
        },
        "properties": {
          "total": {
            "type": "integer"
          },
          "from": {
            "type": "integer"
          },
          "per_page": {
            "type": "integer"
          },
          "current_page": {
            "type": "integer"
          },
          "last_page": {
            "type": "integer"
          },
          "students": {
            "type": "array",
            "items": {
              "type": "object",
              "properties": {
                "id": {
                  "type": "integer"
                },
                "name": {
                  "type": "string"
                },
                "surname": {
                  "type": "string"
                },
                "education_level": {
                  "type": "string"
                },
                "entrance_year": {
                  "type": "integer"
                },
                "department": {
                  "type": "string"
                },
                "speciality": {
                  "type": "string"
                },
                "locking_status": {
                  "type": "boolean"
                },
                "locks": {
                  "type": "array",
                  "items": {
                    "type": "object",
                    "properties": {
                      "id": {
                        "type": "integer"
                      },
                      "is_active": {
                        "type": "boolean"
                      },
                      "requester_department_code": {
                        "type": "string"
                      },
                      "requester_department_title": {
                        "type": "string"
                      },
                      "start_date": {
                        "type": "string"
                      },
                      "end_date": {
                        "type": "string"
                      }
                    },
                    "required": [
                      "id",
                      "is_active",
                      "requester_department_code",
                      "requester_department_title",
                      "start_date",
                      "end_date"
                    ]
                  }
                }
              },
              "required": [
                "id",
                "name",
                "surname",
                "education_level",
                "entrance_year",
                "department",
                "speciality",
                "locking_status",
                "locks"
              ]
            }
          }
        },
        "required": [
          "total",
          "from",
          "per_page",
          "current_page",
          "last_page",
          "students"
        ]
      },
      "ServiceManageLocksPostRequest": {
        "type": "object",
        "x-stoplight": {
          "id": "ac351314d9431"
        },
        "x-examples": {
          "Example 1": {
            "students": [
              "200103049"
            ],
            "requester_department_code": "DEP_COMP_SCI",
            "start_date": "2023-06-23",
            "end_date": "2023-06-30"
          }
        },
        "title": "ServiceManageLocksPostRequest",
        "properties": {
          "students": {
            "type": "array",
            "items": {
              "type": "string"
            }
          },
          "requester_department_code": {
            "type": "string"
          },
          "start_date": {
            "type": "string"
          },
          "end_date": {
            "type": "string"
          }
        },
        "required": [
          "students",
          "requester_department_code",
          "start_date",
          "end_date"
        ]
      },
      "ServiceManageLocksTogglePutRequest": {
        "type": "object",
        "properties": {
          "locks": {
            "type": "array",
            "items": {
              "type": "integer"
            }
          },
          "is_active": {
            "type": "boolean"
          }
        },
        "x-examples": {
          "Example 1": {
            "locks": [
              1
            ],
            "is_active": true
          }
        },
        "title": ""
      },
      "ServiceManageLocksTogglePutResponse": {
        "title": "ServiceManageLocksTogglePutResponse",
        "x-stoplight": {
          "id": "y8m2n7v47x7q8"
        },
        "type": "object",
        "properties": {
          "id": {
            "type": "string",
            "x-stoplight": {
              "id": "3z0wpm5qvtju1"
            }
          }
        }
      },
      "ServiceManageLocksRescheduleRequest": {
        "type": "object",
        "properties": {
          "locks": {
            "type": "array",
            "items": {
              "type": "integer"
            }
          },
          "start_date": {
            "type": "string"
          },
          "end_date": {
            "type": "string"
          }
        },
        "x-examples": {
          "Example 1": {
            "locks": [
              1
            ],
            "start_date": "2023-06-23",
            "end_date": "2023-06-30"
          }
        },
        "title": ""
      },
      "ServiceManageLocksPostResponse": {
        "title": "ServiceManageLocksPostResponse",
        "x-stoplight": {
          "id": "734yjhonybdyc"
        },
        "type": "object"
      }
    }
  }
}